hexagon.repository package
==========================

Submodules
----------

hexagon.repository.store module
-------------------------------

.. automodule:: hexagon.repository.store
   :members:
   :undoc-members:
   :show-inheritance:


Module contents
---------------

.. automodule:: hexagon.repository
   :members:
   :undoc-members:
   :show-inheritance:
