hexagon.etl package
===================

Subpackages
-----------

.. toctree::
   :maxdepth: 4

   hexagon.etl.transform

Submodules
----------

hexagon.etl.automap\_helpers module
-----------------------------------

.. automodule:: hexagon.etl.automap_helpers
   :members:
   :undoc-members:
   :show-inheritance:

hexagon.etl.csv\_util module
----------------------------

.. automodule:: hexagon.etl.csv_util
   :members:
   :undoc-members:
   :show-inheritance:

hexagon.etl.data\_importer module
---------------------------------

.. automodule:: hexagon.etl.data_importer
   :members:
   :undoc-members:
   :show-inheritance:

hexagon.etl.db\_mappers module
------------------------------

.. automodule:: hexagon.etl.db_mappers
   :members:
   :undoc-members:
   :show-inheritance:

hexagon.etl.dumper module
-------------------------

.. automodule:: hexagon.etl.dumper
   :members:
   :undoc-members:
   :show-inheritance:

hexagon.etl.etl\_market module
------------------------------

.. automodule:: hexagon.etl.etl_market
   :members:
   :undoc-members:
   :show-inheritance:

hexagon.etl.etl\_opcvm module
-----------------------------

.. automodule:: hexagon.etl.etl_opcvm
   :members:
   :undoc-members:
   :show-inheritance:

hexagon.etl.exc module
----------------------

.. automodule:: hexagon.etl.exc
   :members:
   :undoc-members:
   :show-inheritance:

hexagon.etl.excel module
------------------------

.. automodule:: hexagon.etl.excel
   :members:
   :undoc-members:
   :show-inheritance:

hexagon.etl.pd\_excel\_writer module
------------------------------------

.. automodule:: hexagon.etl.pd_excel_writer
   :members:
   :undoc-members:
   :show-inheritance:

hexagon.etl.sanitizers module
-----------------------------

.. automodule:: hexagon.etl.sanitizers
   :members:
   :undoc-members:
   :show-inheritance:

hexagon.etl.template module
---------------------------

.. automodule:: hexagon.etl.template
   :members:
   :undoc-members:
   :show-inheritance:


Module contents
---------------

.. automodule:: hexagon.etl
   :members:
   :undoc-members:
   :show-inheritance:
